{
  "routes": [
    {
      "method": "GET",
      "path": "/cities",
      "handler": "City.find",
      "config": {
        "policies": []
      }
    },
    {
      "method": "GET",
      "path": "/cities/count",
      "handler": "City.count",
      "config": {
        "policies": []
      }
    },
    {
      "method": "GET",
      "path": "/cities/:id/items/:itemId",
      "handler": "City.item",
      "config": {
        "policies": []
      }
    },
    {
      "method": "GET",
      "path": "/cities/:id/tours/:date/times",
      "handler": "City.times",
      "config": {
        "policies": []
      }
    },
    {
      "method": "GET",
      "path": "/cities/:id/tours/:itemId/:date/:param/:tickets",
      "handler": "City.tickets",
      "config": {
        "policies": []
      }
    },
    {
      "method": "GET",
      "path": "/cities/:id/tours/:month",
      "handler": "City.tours",
      "config": {
        "policies": []
      }
    },
    {
      "method": "GET",
      "path": "/cities/:id/calendar/:month",
      "handler": "City.calendar",
      "config": {
        "policies": []
      }
    },
    {
      "method": "GET",
      "path": "/cities/:id/vouchers",
      "handler": "City.vouchers",
      "config": {
        "policies": []
      }
    },
    {
      "method": "GET",
      "path": "/cities/:id/packages",
      "handler": "City.packages",
      "config": {
        "policies": []
      }
    },
    {
      "method": "GET",
      "path": "/cities/:id/custom-tours",
      "handler": "City.customTours",
      "config": {
        "policies": []
      }
    },
    {
      "method": "POST",
      "path": "/cities/:id/booking-sessions",
      "handler": "City.alterBookingSession",
      "config": {
        "policies": []
      }
    },
    {
      "method": "GET",
      "path": "/cities/:id/booking-sessions/:sessionId",
      "handler": "City.getBookingSession",
      "config": {
        "policies": []
      }
    },
    {
      "method": "DELETE",
      "path": "/cities/:id/booking-sessions/:sessionId",
      "handler": "City.deleteBookingSession",
      "config": {
        "policies": []
      }
    },
    {
      "method": "GET",
      "path": "/cities/:id",
      "handler": "City.findOne",
      "config": {
        "policies": []
      }
    },
    {
      "method": "POST",
      "path": "/cities",
      "handler": "City.create",
      "config": {
        "policies": []
      }
    },
    {
      "method": "PUT",
      "path": "/cities/:id",
      "handler": "City.update",
      "config": {
        "policies": []
      }
    },
    {
      "method": "DELETE",
      "path": "/cities/:id",
      "handler": "City.delete",
      "config": {
        "policies": []
      }
    },
    {
      "method": "POST",
      "path": "/cities/:id/bookings",
      "handler": "City.createBooking",
      "config": {
        "policies": []
      }
    },
    {
      "method": "GET",
      "path": "/cities/:id/bookings/:bookingId",
      "handler": "City.getBooking",
      "config": {
        "policies": []
      }
    },
    {
      "method": "GET",
      "path": "/cities/:id/bookings/form",
      "handler": "City.getBookingForm",
      "config": {
        "policies": []
      }
    },
    {
      "method": "GET",
      "path": "/cities/:id/host",
      "handler": "City.getHost",
      "config": {
        "policies": []
      }
    },
    {
      "method": "GET",
      "path": "/cities/:id/checkout-labels",
      "handler": "City.getCheckoutLabels",
      "config": {
        "policies": []
      }
    }
  ]
}
