{
  "routes": [
    {
      "method": "GET",
      "path": "/customtours",
      "handler": "Customtours.find",
      "config": {
        "policies": []
      }
    },
    {
      "method": "GET",
      "path": "/customtours/count",
      "handler": "Customtours.count",
      "config": {
        "policies": []
      }
    },
    {
      "method": "GET",
      "path": "/customtours/:id",
      "handler": "Customtours.findOne",
      "config": {
        "policies": []
      }
    },
    {
      "method": "POST",
      "path": "/customtours",
      "handler": "Customtours.create",
      "config": {
        "policies": []
      }
    },
    {
      "method": "PUT",
      "path": "/customtours/:id",
      "handler": "Customtours.update",
      "config": {
        "policies": []
      }
    },
    {
      "method": "DELETE",
      "path": "/customtours/:id",
      "handler": "Customtours.delete",
      "config": {
        "policies": []
      }
    }
  ]
}
