{
  "connection": "default",
  "collectionName": "categories",
  "info": {
    "name": "category",
    "description": ""
  },
  "options": {
    "increments": true,
    "timestamps": [
      "created_at",
      "updated_at"
    ],
    "comment": ""
  },
  "attributes": {
    "identifier": {
      "type": "string"
    },
    "name": {
      "group": "snippet_group",
      "type": "group"
    },
    "image": {
      "model": "file",
      "via": "related",
      "plugin": "upload"
    },
    "locations": {
      "collection": "location",
      "via": "category"
    }
  }
}